{
  "presets": ["@babel/preset-react", "@babel/preset-env"],
  "plugins": [
	  ["@babel/plugin-proposal-optional-chaining"], 
	  ["@babel/plugin-proposal-decorators", {"decoratorsBeforeExport": false}]
  ]
}
